﻿{
    "ct": [
        { "x": 0, "y": 0 },
        { "x": 0, "y": 1 },
        { "x": 0, "y": 2 },
        { "x": 0, "y": 3 },
        { "x": 1, "y": 0 },
        { "x": 1, "y": 1 },
        { "x": 1, "y": 2 },
        { "x": 1, "y": 3 }
    ],
    "nt": [
        [0, 4, 1],
        [1, 4, 5],
        [1, 5, 2],
        [2, 5, 6],
        [3, 2, 6],
        [3, 6, 7]
    ]
}